{
	"info": {
		"_postman_id": "a9d5eb9e-7461-42e4-8b72-ff3e2ac245d2",
		"name": "uno API Copy",
		"schema": "https://schema.getpostman.com/json/collection/v2.1.0/collection.json"
	},
	"item": [
		{
			"name": "Deprecated",
			"item": [
				{
					"name": "Onboard - Redirect",
					"request": {
						"method": "GET",
						"header": [
							{
								"key": "Referer",
								"value": "https://www.domain.com.au/24a-beatty-street-balgowlah-heights-nsw-2093-2013468217"
							}
						],
						"url": {
							"raw": "https://api.unohomeloans.com.au/application-api/miltontest/onboard/redirect?referrer=domain",
							"protocol": "https",
							"host": [
								"api",
								"unohomeloans",
								"com",
								"au"
							],
							"path": [
								"application-api",
								"miltontest",
								"onboard",
								"redirect"
							],
							"query": [
								{
									"key": "referrer",
									"value": "domain"
								}
							]
						},
						"description": "Used by Domain ONLY"
					},
					"response": []
				},
				{
					"name": "Product Search",
					"request": {
						"method": "GET",
						"header": [
							{
								"key": "Origin",
								"value": "https://qa.unohomeloans.com.au"
							}
						],
						"url": {
							"raw": "https://api.unohomeloans.com.au/application-api/miltontest/product-search/json?paymentType=PrincipalAndInterest&referrer=alt-media&apiKey=uKebChKHzc8yLG6Q&size=3&loanTerm=30&loanType=Purchase&propertyEstimatedValue=500000&depositAmount=200000&loanRemaining=&propertyPurpose=OwnerOccupied&householdIncome=10000&name=oiu%20oiu&email=oiuoiuoiu%40oiuouiuio.qwe&rateType=FixedRate&fixedRateTerm=5",
							"protocol": "https",
							"host": [
								"api",
								"unohomeloans",
								"com",
								"au"
							],
							"path": [
								"application-api",
								"miltontest",
								"product-search",
								"json"
							],
							"query": [
								{
									"key": "paymentType",
									"value": "PrincipalAndInterest"
								},
								{
									"key": "referrer",
									"value": "alt-media"
								},
								{
									"key": "apiKey",
									"value": "uKebChKHzc8yLG6Q"
								},
								{
									"key": "size",
									"value": "3"
								},
								{
									"key": "loanTerm",
									"value": "30"
								},
								{
									"key": "loanType",
									"value": "Purchase"
								},
								{
									"key": "propertyEstimatedValue",
									"value": "500000"
								},
								{
									"key": "depositAmount",
									"value": "200000"
								},
								{
									"key": "loanRemaining",
									"value": ""
								},
								{
									"key": "propertyPurpose",
									"value": "OwnerOccupied"
								},
								{
									"key": "householdIncome",
									"value": "10000"
								},
								{
									"key": "name",
									"value": "oiu%20oiu"
								},
								{
									"key": "email",
									"value": "oiuoiuoiu%40oiuouiuio.qwe"
								},
								{
									"key": "rateType",
									"value": "FixedRate"
								},
								{
									"key": "fixedRateTerm",
									"value": "5"
								}
							]
						},
						"description": "Simple version of product search - deprecated"
					},
					"response": []
				}
			],
			"protocolProfileBehavior": {}
		},
		{
			"name": "Accounts",
			"request": {
				"method": "POST",
				"header": [
					{
						"key": "Content-Type",
						"value": "application/json"
					}
				],
				"body": {
					"mode": "raw",
					"raw": "{\n  \"apiKey\": \"wj3SnFm4HrXnnvmt\", \n  \"applicants\": [\n    {\n      \"creditScore\": 0, \n      \"currentAddress\": \"17/11-15 Ben Boyd Road Neutral Bay NSW 2089\", \n      \"dateOfBirth\": \"1980/02/09\", \n      \"emailAddress\": \"asd@gmail.com\", \n      \"employments\": [\n        {\n          \"employed\": \"true\", \n          \"employmentType\": \"PAYE\", \n          \"grossAnnualSalary\": 33\n        }\n      ], \n      \"firstName\": \"Test\", \n      \"lastName\": \"Test Surname\", \n      \"mobileNumber\": \"0406999999\"\n    }\n  ], \n  \"newLoan\": {\n    \"loanType\": \"Refinance\", \n    \"repaymentType\": \"PrincipalAndInterest\"\n  }, \n  \"newUser\": {\n    \"emailAddress\": \"{{$guid}}@gmail.com\", \n    \"firstName\": \"Test\", \n    \"lastName\": \"Test Surname\"\n  }, \n  \"property\": {\n    \"estimatedValue\": 33, \n    \"existingLoan\": {\n      \"loanAmount\": 33\n    }, \n    \"purpose\": \"OwnerOccupied\"\n  }, \n  \"referrer\": \"getcreditscore\"\n}\n"
				},
				"url": {
					"raw": "{{apiHost}}/accounts",
					"host": [
						"{{apiHost}}"
					],
					"path": [
						"accounts"
					]
				},
				"description": "Used to create an account and returns a 200"
			},
			"response": []
		},
		{
			"name": "Accounts - Redirect",
			"request": {
				"method": "POST",
				"header": [
					{
						"key": "Content-Type",
						"value": "application/json"
					},
					{
						"key": "x-api-key",
						"value": "{{apiKey}}"
					}
				],
				"body": {
					"mode": "raw",
					"raw": "{\n  \"apiKey\": \"wj3SnFm4HrXnnvmt\", \n  \"applicants\": [\n    {\n      \"creditScore\": 0, \n      \"currentAddress\": \"17/11-15 Ben Boyd Road Neutral Bay NSW 2089\", \n      \"dateOfBirth\": \"1980/02/09\", \n      \"emailAddress\": \"asd@gmail.com\", \n      \"employments\": [\n        {\n          \"employed\": \"true\", \n          \"employmentType\": \"PAYE\", \n          \"grossAnnualSalary\": 33\n        }\n      ], \n      \"firstName\": \"Test\",\n      \"lastName\": \"Test Surname\", \n      \"mobileNumber\": \"0406999999\"\n    }\n  ], \n  \"newLoan\": {\n    \"loanType\": \"Refinance\", \n    \"repaymentType\": \"PrincipalAndInterest\"\n  }, \n  \"newUser\": {\n    \"emailAddress\": \"oiuoiuuiq@m.mco\", \n    \"firstName\": \"Test\", \n    \"lastName\": \"Test Surname\"\n  }, \n  \"property\": {\n    \"estimatedValue\": 33, \n    \"existingLoan\": {\n      \"loanAmount\": 33\n    }, \n    \"purpose\": \"OwnerOccupied\"\n  }, \n  \"referrer\": \"getcreditscore\"\n}\n"
				},
				"url": {
					"raw": "{{apiHost}}/accounts/redirect?goto=product-search",
					"host": [
						"{{apiHost}}"
					],
					"path": [
						"accounts",
						"redirect"
					],
					"query": [
						{
							"key": "goto",
							"value": "product-search"
						}
					]
				},
				"description": "Used to create an account and returns a 307"
			},
			"response": []
		},
		{
			"name": "Calculator - Borrowing Power",
			"request": {
				"method": "POST",
				"header": [
					{
						"key": "Origin",
						"value": "https://qa.unohomeloans.com.au"
					},
					{
						"key": "Content-Type",
						"value": "application/json"
					}
				],
				"body": {
					"mode": "raw",
					"raw": "{  \n   \"applicationType\":\"Sole\",\n   \"maritalStatus\":\"Single\",\n   \"numberOfDependents\":1,\n   \"loanTerm\":30,\n   \"repaymentType\":\"PrincipalAndInterest\",\n   \"monthlyRentalIncome\":1500,\n   \"monthlyLivingExpense\":2500,\n   \"creditCardLimit\":15000,\n   \"applicants\":[\n      {\n         \"employmentType\":\"PAYE\",\n         \"monthlySalaryBeforeTax\":10000,\n         \"otherIncomes\":[\n            {\n               \"type\":\"NetRegularOvertime\",\n               \"monthlyAmount\":500\n            }\n         ]\n      }\n   ],\n   \"otherExpenses\":[\n      {\n         \"type\":\"EducationExpenses\",\n         \"monthlyAmount\":150\n      }\n   ]\n}"
				},
				"url": {
					"raw": "{{apiHost}}/calculators/borrowing-power",
					"host": [
						"{{apiHost}}"
					],
					"path": [
						"calculators",
						"borrowing-power"
					]
				}
			},
			"response": []
		},
		{
			"name": "Calculator - Funds Required",
			"event": [
				{
					"listen": "test",
					"script": {
						"id": "4ddd5216-bc0b-49e7-b98a-5ae12c7185c9",
						"type": "text/javascript",
						"exec": [
							"tests[\"Status code is 200\"] = responseCode.code === 200;",
							"",
							"// var jsonData = JSON.parse(responseBody);",
							"// tests[\"Your test name\"] = jsonData.round.totalFundsRequired === 831763;",
							""
						]
					}
				}
			],
			"request": {
				"method": "POST",
				"header": [
					{
						"key": "x-api-key",
						"value": "JBbAtyPGhb7kz44GShyw27jSXBtyAMhEati4VeLN"
					},
					{
						"key": "Content-Type",
						"value": "application/json"
					},
					{
						"key": "Origin",
						"value": "http://localhost:8000"
					}
				],
				"body": {
					"mode": "raw",
					"raw": "{\"solver\":\"DEP80LVR\",\"employmentType\":\"PAYG\",\"loanPurposeTransaction\":\"PURCHASE\",\"loanType\":\"OO\",\"firstHomeBuyer\":false,\"deposit\":200000,\"existingMortgageAmount\":0,\"cashOutAmount\":0,\"additionalCosts\":0,\"conveyanceCosts\":0,\"lenderFeesDisbursement\":0,\"propertyStatus\":\"ESTABLISHED\",\"propertyValue\":1000000,\"postcode\":2131,\"state\":\"NSW\",\"loanTerm\":30,\"lenderLMI\":\"\",\"actOnlyNumberOfDependentChildren\":0,\"actOnlyTotalGrossIncome\":100000,\"debtConsolidation\":0,\"overwriteLMI\":true}"
				},
				"url": {
					"raw": "{{apiHost}}/calculators/funds-required",
					"host": [
						"{{apiHost}}"
					],
					"path": [
						"calculators",
						"funds-required"
					]
				}
			},
			"response": []
		},
		{
			"name": "Calculator - IO PI",
			"request": {
				"method": "GET",
				"header": [
					{
						"key": "x-api-key",
						"value": "JBbAtyPGhb7kz44GShyw27jSXBtyAMhEati4VeLN"
					},
					{
						"key": "Origin",
						"value": "https://unohomeloans.com.au"
					},
					{
						"key": "Content-Type",
						"value": "text/plain",
						"disabled": true
					}
				],
				"url": {
					"raw": "{{apiHost}}/calculators/io-pi?grossIncome=70000&loanAmount=80000&piInterestRate=3.5&purchasePrice=200000&grossRentalIncome=100&ioInterestRate=4&investmentPropertyDeductible=false",
					"host": [
						"{{apiHost}}"
					],
					"path": [
						"calculators",
						"io-pi"
					],
					"query": [
						{
							"key": "grossIncome",
							"value": "70000"
						},
						{
							"key": "loanAmount",
							"value": "80000"
						},
						{
							"key": "piInterestRate",
							"value": "3.5"
						},
						{
							"key": "purchasePrice",
							"value": "200000"
						},
						{
							"key": "grossRentalIncome",
							"value": "100"
						},
						{
							"key": "ioInterestRate",
							"value": "4"
						},
						{
							"key": "investmentPropertyDeductible",
							"value": "false"
						}
					]
				}
			},
			"response": []
		},
		{
			"name": "Calculator - Refinance",
			"request": {
				"method": "GET",
				"header": [
					{
						"key": "Origin",
						"value": "https://qa.unohomeloans.com.au"
					}
				],
				"url": {
					"raw": "{{apiHost}}/calculators/refinance?currentLoanTermMonth=30&paymentType=PrincipalAndInterest&newLoanAmount=500000&newInterestRate=3.75&currentLoanAmount=500000&currentInterestRate=3.5&newLoanTermMonth=30",
					"host": [
						"{{apiHost}}"
					],
					"path": [
						"calculators",
						"refinance"
					],
					"query": [
						{
							"key": "currentLoanTermMonth",
							"value": "30"
						},
						{
							"key": "paymentType",
							"value": "PrincipalAndInterest"
						},
						{
							"key": "newLoanAmount",
							"value": "500000"
						},
						{
							"key": "newInterestRate",
							"value": "3.75"
						},
						{
							"key": "currentLoanAmount",
							"value": "500000"
						},
						{
							"key": "currentInterestRate",
							"value": "3.5"
						},
						{
							"key": "newLoanTermMonth",
							"value": "30"
						}
					]
				}
			},
			"response": []
		},
		{
			"name": "Calculator - Repayment",
			"request": {
				"method": "GET",
				"header": [
					{
						"key": "x-api-key",
						"value": "JBbAtyPGhb7kz44GShyw27jSXBtyAMhEati4VeLN"
					},
					{
						"key": "Origin",
						"value": "http://localhost:8000"
					}
				],
				"url": {
					"raw": "{{apiHost}}/calculators/repayment?variableRepaymentType=PI&loanAmount=500000&variableFrequency=26&variableInterestRate=5.5&loanTerm=30&fixedIOInitialInterestRate=3.3&fixedIOPeriod=5&extraRepaymentAmount=5000&offsetDepositAmount=200000",
					"host": [
						"{{apiHost}}"
					],
					"path": [
						"calculators",
						"repayment"
					],
					"query": [
						{
							"key": "variableRepaymentType",
							"value": "PI"
						},
						{
							"key": "loanAmount",
							"value": "500000"
						},
						{
							"key": "variableFrequency",
							"value": "26"
						},
						{
							"key": "variableInterestRate",
							"value": "5.5"
						},
						{
							"key": "loanTerm",
							"value": "30"
						},
						{
							"key": "fixedIOInitialInterestRate",
							"value": "3.3"
						},
						{
							"key": "fixedIOPeriod",
							"value": "5"
						},
						{
							"key": "extraRepaymentAmount",
							"value": "5000"
						},
						{
							"key": "offsetDepositAmount",
							"value": "200000"
						}
					]
				}
			},
			"response": []
		},
		{
			"name": "Calculator - Stamp Duty",
			"request": {
				"method": "GET",
				"header": [
					{
						"key": "x-api-key",
						"value": "JBbAtyPGhb7kz44GShyw27jSXBtyAMhEati4VeLN"
					},
					{
						"key": "Origin",
						"value": "http://localhost:8000"
					}
				],
				"url": {
					"raw": "{{apiHost}}/calculators/stamp-duty?firstHomeBuyer=true&loanType=OO&postcode=2000&propertyStatus=ESTABLISHED&propertyValue=500000&state=NSW",
					"host": [
						"{{apiHost}}"
					],
					"path": [
						"calculators",
						"stamp-duty"
					],
					"query": [
						{
							"key": "firstHomeBuyer",
							"value": "true"
						},
						{
							"key": "loanType",
							"value": "OO"
						},
						{
							"key": "postcode",
							"value": "2000"
						},
						{
							"key": "propertyStatus",
							"value": "ESTABLISHED"
						},
						{
							"key": "propertyValue",
							"value": "500000"
						},
						{
							"key": "state",
							"value": "NSW"
						}
					]
				}
			},
			"response": []
		},
		{
			"name": "Cookie - Clear",
			"request": {
				"method": "GET",
				"header": [],
				"url": {
					"raw": "{{apiHost}}/cookies/clear",
					"host": [
						"{{apiHost}}"
					],
					"path": [
						"cookies",
						"clear"
					]
				}
			},
			"response": []
		},
		{
			"name": "Cookie - Referrer",
			"request": {
				"method": "GET",
				"header": [],
				"url": {
					"raw": "{{apiHost}}/cookies/clear",
					"host": [
						"{{apiHost}}"
					],
					"path": [
						"cookies",
						"clear"
					]
				},
				"description": "Set referrer cookie"
			},
			"response": []
		},
		{
			"name": "Email - Validation",
			"request": {
				"method": "GET",
				"header": [],
				"url": {
					"raw": "{{apiHost}}/email/validation?emailAddress=mlai@mlai.org",
					"host": [
						"{{apiHost}}"
					],
					"path": [
						"email",
						"validation"
					],
					"query": [
						{
							"key": "emailAddress",
							"value": "mlai@mlai.org"
						}
					]
				}
			},
			"response": []
		},
		{
			"name": "Product Search - Json",
			"request": {
				"method": "GET",
				"header": [
					{
						"key": "Origin",
						"value": "https://qa.unohomeloans.com.au"
					}
				],
				"url": {
					"raw": "{{apiHost}}/product-search/json?paymentType=PrincipalAndInterest&referrer=alt-media&apiKey=uKebChKHzc8yLG6Q&size=3&loanTerm=30&loanType=Purchase&propertyEstimatedValue=500000&depositAmount=200000&loanRemaining=&propertyPurpose=OwnerOccupied&householdIncome=10000&name=oiu%20oiu&email=oiuoiuoiu%40oiuouiuio.qwe&rateType=FixedRate&fixedRateTerm=5",
					"host": [
						"{{apiHost}}"
					],
					"path": [
						"product-search",
						"json"
					],
					"query": [
						{
							"key": "paymentType",
							"value": "PrincipalAndInterest"
						},
						{
							"key": "referrer",
							"value": "alt-media"
						},
						{
							"key": "apiKey",
							"value": "uKebChKHzc8yLG6Q"
						},
						{
							"key": "size",
							"value": "3"
						},
						{
							"key": "loanTerm",
							"value": "30"
						},
						{
							"key": "loanType",
							"value": "Purchase"
						},
						{
							"key": "propertyEstimatedValue",
							"value": "500000"
						},
						{
							"key": "depositAmount",
							"value": "200000"
						},
						{
							"key": "loanRemaining",
							"value": ""
						},
						{
							"key": "propertyPurpose",
							"value": "OwnerOccupied"
						},
						{
							"key": "householdIncome",
							"value": "10000"
						},
						{
							"key": "name",
							"value": "oiu%20oiu"
						},
						{
							"key": "email",
							"value": "oiuoiuoiu%40oiuouiuio.qwe"
						},
						{
							"key": "rateType",
							"value": "FixedRate"
						},
						{
							"key": "fixedRateTerm",
							"value": "5"
						}
					]
				}
			},
			"response": []
		},
		{
			"name": "Proxy - GET",
			"request": {
				"auth": {
					"type": "noauth"
				},
				"method": "GET",
				"header": [
					{
						"key": "Content-Type",
						"value": "application/json"
					},
					{
						"key": "x-auth-token",
						"value": "jyhsdsOI87Ff95673fhsNGuki87rgbrft34rfdfvykaw43446453dfbp!df$333#mxnxbn561203!"
					},
					{
						"key": "Accept-Encoding",
						"value": "identity"
					},
					{
						"key": "Accept",
						"value": "application/json"
					},
					{
						"key": "Host",
						"value": "api.unohomeloans.com.au",
						"disabled": true
					}
				],
				"url": {
					"raw": "{{apiHost}}/proxy?url=https://api.getcreditscore.com.au/v1/partner/gcsuser/u-BE46270F-06AE-4EDF-8357-1F293D998FC8",
					"host": [
						"{{apiHost}}"
					],
					"path": [
						"proxy"
					],
					"query": [
						{
							"key": "url",
							"value": "https://api.getcreditscore.com.au/v1/partner/gcsuser/u-BE46270F-06AE-4EDF-8357-1F293D998FC8"
						}
					]
				},
				"description": "Simple proxy implmentation if CORS is an issue. Best option is to solve the CORS issue properly."
			},
			"response": []
		},
		{
			"name": "Proxy - POST",
			"request": {
				"method": "POST",
				"header": [
					{
						"key": "Content-Type",
						"value": "application/json"
					}
				],
				"body": {
					"mode": "raw",
					"raw": "{\n\t\"userId\": 1,\n\t\"blah\":\"asd\"\n}"
				},
				"url": {
					"raw": "{{apiHost}}/proxy?url=https://jsonplaceholder.typicode.com/posts",
					"host": [
						"{{apiHost}}"
					],
					"path": [
						"proxy"
					],
					"query": [
						{
							"key": "url",
							"value": "https://jsonplaceholder.typicode.com/posts"
						}
					]
				},
				"description": "Simple proxy implmentation if CORS is an issue. Best option is to solve the CORS issue properly."
			},
			"response": []
		},
		{
			"name": "Proxy - Credit Score",
			"request": {
				"method": "GET",
				"header": [
					{
						"key": "x-auth-token",
						"value": "jyhsdsOI87Ff95673fhsNGuki87rgbrft34rfdfvykaw43446453dfbp!df$333#mxnxbn561203!"
					}
				],
				"url": {
					"raw": "{{apiHost}}/proxy/credit-score/?gcs_user_uuid=u-BE46270F-06AE-4EDF-8357-1F293D998FC8",
					"host": [
						"{{apiHost}}"
					],
					"path": [
						"proxy",
						"credit-score",
						""
					],
					"query": [
						{
							"key": "gcs_user_uuid",
							"value": "u-BE46270F-06AE-4EDF-8357-1F293D998FC8"
						}
					]
				}
			},
			"response": []
		},
		{
			"name": "Third Party - Core Logic - Suggest",
			"request": {
				"method": "GET",
				"header": [],
				"url": {
					"raw": "{{apiHost}}/third-party/core-logic/suggest?q=1/29 victoria",
					"host": [
						"{{apiHost}}"
					],
					"path": [
						"third-party",
						"core-logic",
						"suggest"
					],
					"query": [
						{
							"key": "q",
							"value": "1/29 victoria"
						}
					]
				}
			},
			"response": []
		},
		{
			"name": "Third Party - Core Logic - Property Details",
			"request": {
				"method": "GET",
				"header": [],
				"url": {
					"raw": "{{apiHost}}/third-party/core-logic/property-details?propertyId=8159708&captchaToken",
					"host": [
						"{{apiHost}}"
					],
					"path": [
						"third-party",
						"core-logic",
						"property-details"
					],
					"query": [
						{
							"key": "propertyId",
							"value": "8159708"
						},
						{
							"key": "captchaToken",
							"value": null
						}
					]
				},
				"description": "This API requires the captchaToken within 30 seconds of the capture being solved. So to test, you must get the capture token via the website, and then use it in here quite quickly."
			},
			"response": []
		},
		{
			"name": "Third Party - Get Credit Score",
			"request": {
				"method": "GET",
				"header": [
					{
						"key": "accounts-referrer",
						"value": ""
					},
					{
						"key": "credit-score-apikey",
						"value": ""
					},
					{
						"key": "accounts-apikey",
						"value": ""
					}
				],
				"url": {
					"raw": "{{apiHost}}/third-party/get-credit-score/?gcs_user_uuid=u-BE46270F-06AE-4EDF-8357-1F293D998FC8",
					"host": [
						"{{apiHost}}"
					],
					"path": [
						"third-party",
						"get-credit-score",
						""
					],
					"query": [
						{
							"key": "gcs_user_uuid",
							"value": "u-BE46270F-06AE-4EDF-8357-1F293D998FC8"
						}
					]
				}
			},
			"response": []
		},
		{
			"name": "Tracking",
			"request": {
				"method": "GET",
				"header": [],
				"url": {
					"raw": "{{apiHost}}/tracking?data=eeee",
					"host": [
						"{{apiHost}}"
					],
					"path": [
						"tracking"
					],
					"query": [
						{
							"key": "data",
							"value": "eeee"
						}
					]
				},
				"description": "Setting amplitude device id, so platform can pick that up later."
			},
			"response": []
		}
	],
	"event": [
		{
			"listen": "prerequest",
			"script": {
				"id": "84f006c6-a3c5-4599-a363-c4dbcfb6bbf6",
				"type": "text/javascript",
				"exec": [
					""
				]
			}
		},
		{
			"listen": "test",
			"script": {
				"id": "81ce5659-ac78-4e3b-83af-a86c2e65404e",
				"type": "text/javascript",
				"exec": [
					""
				]
			}
		}
	],
	"protocolProfileBehavior": {}
}