{
	"id": "82bece51-9457-491f-8e32-f6121402cf17",
	"name": "Attlassian",
	"values": [
		{
			"key": "apibitbucket",
			"value": "https://api.bitbucket.org",
			"enabled": true
		},
		{
			"key": "bitbucket",
			"value": "https://bitbucket.org",
			"enabled": true
		}
	],
	"_postman_variable_scope": "environment",
	"_postman_exported_at": "2021-04-02T00:15:25.309Z",
	"_postman_exported_using": "Postman/7.32.0"
}