{
	"id": "0485281f-db8e-431d-9844-bb9537b4b507",
	"name": "Braze Prod",
	"values": [
		{
			"key": "brazeApi",
			"value": "https://rest.fra-01.braze.eu",
			"enabled": true
		},
		{
			"key": "apiKey",
			"value": "5d75c885-ea9e-4ed7-8efc-3d55e5eb5665",
			"enabled": true
		},
		{
			"key": "campaignApiKey",
			"value": "a07fecbe-7c66-45e9-aeeb-65f78440500d",
			"enabled": true
		}
	],
	"_postman_variable_scope": "environment",
	"_postman_exported_at": "2021-04-02T00:16:20.052Z",
	"_postman_exported_using": "Postman/7.32.0"
}